NVIDIA_Practice/Intel REU/Multiplier/MultiplierTest.vcd
$date
	Tue Jun 04 23:18:13 2024
$end
$version
	Icarus Verilog
$end
$timescale
	100ps
$end
$scope module MultiplierTest $end
$var wire 8 ! product [7:0] $end
$var reg 1 " clk $end
$var reg 8 # errors [7:0] $end
$var reg 4 $ multiplicand [3:0] $end
$var reg 4 % multiplier [3:0] $end
$var reg 1 & rst $end
$var reg 1 ' start $end
$var integer 32 ( i [31:0] $end
$scope module multipliertester $end
$var wire 1 " clk $end
$var wire 4 ) multiplicand [3:0] $end
$var wire 4 * multiplier [3:0] $end
$var wire 1 & rst $end
$var wire 1 ' start $end
$var wire 1 + rsshr $end
$var wire 1 , rsload $end
$var wire 1 - rsclear $end
$var wire 8 . product [7:0] $end
$var wire 1 / mrld $end
$var wire 1 0 mr3 $end
$var wire 1 1 mr2 $end
$var wire 1 2 mr1 $end
$var wire 1 3 mr0 $end
$var wire 1 4 mdld $end
$scope module ctrl $end
$var wire 1 " clk $end
$var wire 1 & rst $end
$var wire 1 ' start $end
$var wire 1 0 mr3 $end
$var wire 1 1 mr2 $end
$var wire 1 2 mr1 $end
$var wire 1 3 mr0 $end
$var parameter 4 5 BIT_ONE $end
$var parameter 4 6 BIT_ONE_TRUE $end
$var parameter 4 7 BIT_THREE $end
$var parameter 4 8 BIT_THREE_TRUE $end
$var parameter 4 9 BIT_TWO $end
$var parameter 4 : BIT_TWO_TRUE $end
$var parameter 4 ; BIT_ZERO $end
$var parameter 4 < BIT_ZERO_TRUE $end
$var parameter 4 = FINAL $end
$var parameter 4 > INIT $end
$var parameter 4 ? START $end
$var reg 1 4 mdld $end
$var reg 1 / mrld $end
$var reg 4 @ next_state [3:0] $end
$var reg 1 - rsclear $end
$var reg 1 , rsload $end
$var reg 1 + rsshr $end
$var reg 4 A state [3:0] $end
$upscope $end
$scope module dpath $end
$var wire 1 " clk $end
$var wire 1 4 mdld $end
$var wire 1 / mrld $end
$var wire 4 B multiplicand [3:0] $end
$var wire 4 C multiplier [3:0] $end
$var wire 1 - rsclear $end
$var wire 1 , rsload $end
$var wire 1 + rsshr $end
$var wire 8 D product [7:0] $end
$var wire 1 0 mr3 $end
$var wire 1 1 mr2 $end
$var wire 1 2 mr1 $end
$var wire 1 3 mr0 $end
$var reg 9 E multiplicandReg [8:0] $end
$var reg 4 F multiplierReg [3:0] $end
$var reg 9 G runningSumReg [8:0] $end
$upscope $end
$upscope $end
$upscope $end
$enddefinitions $end
$comment Show the parameter values. $end
$dumpall
b0 ?
b1 >
b1010 =
b11 <
b10 ;
b111 :
b110 9
b1001 8
b1000 7
b101 6
b100 5
$end
#0
$dumpvars
bx G
bx F
bx E
bx D
b0 C
b0 B
bx A
bx @
x4
x3
x2
x1
x0
x/
bx .
x-
x,
x+
b0 *
b0 )
bx (
0'
0&
b0 %
b0 $
b0 #
0"
bx !
$end
#10
b11 %
b11 *
b11 C
#30
b110 $
b110 )
b110 B
#50
1&
#70
b0 @
04
0/
0+
0-
0,
b0 A
1"
#80
0"
#100
0&
#120
b1 @
1'
#140
b10 @
1-
1/
14
b1 A
1"
#150
0"
#170
b10 @
0'
#180
b0 (
#190
b0 !
b0 .
b0 D
00
01
12
13
b11 @
04
0/
0-
b0 G
b11 F
b1100000 E
b10 A
1"
#200
0"
#210
b1 (
#220
b100 @
1,
b11 A
1"
#230
0"
#240
b10 (
#250
b1100000 !
b1100000 .
b1100000 D
b101 @
1+
0,
b1100000 G
b100 A
1"
#260
0"
#270
b11 (
#280
b110 @
1,
0+
b110000 !
b110000 .
b110000 D
b101 A
b110000 G
1"
#290
0"
#300
b100 (
#310
b10010000 !
b10010000 .
b10010000 D
b1000 @
1+
0,
b10010000 G
b110 A
1"
#320
0"
#330
b101 (
#340
b1010 @
1+
b1001000 !
b1001000 .
b1001000 D
b1000 A
b1001000 G
1"
#350
0"
#360
b110 (
#370
b100100 !
b100100 .
b100100 D
b0 @
1+
b100100 G
b1010 A
1"
#380
0"
#390
b111 (
#400
0+
b10010 !
b10010 .
b10010 D
b0 A
b10010 G
1"
#410
0"
#420
b1000 (
#430
1"
#440
0"
#450
b1001 (
#460
1"
#470
0"
#480
b1010 (
#490
b1111 %
b1111 *
b1111 C
#510
b1111 $
b1111 )
b1111 B
#530
1&
#550
1"
#560
0"
#580
0&
#600
b1 @
1'
#620
b10 @
1-
1/
14
b1 A
1"
#630
0"
#650
b10 @
0'
#660
b0 (
#670
b0 !
b0 .
b0 D
10
11
b11 @
04
0/
0-
b0 G
b1111 F
b11110000 E
b10 A
1"
#680
0"
#690
b1 (
#700
b100 @
1,
b11 A
1"
#710
0"
#720
b10 (
#730
b11110000 !
b11110000 .
b11110000 D
b101 @
1+
0,
b11110000 G
b100 A
1"
#740
0"
#750
b11 (
#760
b110 @
1,
0+
b1111000 !
b1111000 .
b1111000 D
b101 A
b1111000 G
1"
#770
0"
#780
b100 (
#790
b1101000 !
b1101000 .
b1101000 D
b111 @
1+
0,
b101101000 G
b110 A
1"
#800
0"
#810
b101 (
#820
b1000 @
1,
0+
b10110100 !
b10110100 .
b10110100 D
b111 A
b10110100 G
1"
#830
0"
#840
b110 (
#850
b10100100 !
b10100100 .
b10100100 D
b1001 @
1+
0,
b110100100 G
b1000 A
1"
#860
0"
#870
b111 (
#880
b1010 @
1,
0+
b11010010 !
b11010010 .
b11010010 D
b1001 A
b11010010 G
1"
#890
0"
#900
b1000 (
#910
b11000010 !
b11000010 .
b11000010 D
b0 @
1+
0,
b111000010 G
b1010 A
1"
#920
0"
#930
b1001 (
#940
0+
b11100001 !
b11100001 .
b11100001 D
b0 A
b11100001 G
1"
#950
0"
#960
b1010 (
#970
b0 %
b0 *
b0 C
#990
b1100 $
b1100 )
b1100 B
#1010
1&
#1030
1"
#1040
0"
#1060
0&
#1080
b1 @
1'
#1100
b10 @
1-
1/
14
b1 A
1"
#1110
0"
#1130
b10 @
0'
#1140
b0 (
#1150
b0 !
b0 .
b0 D
00
01
02
03
b100 @
04
0/
0-
b0 G
b0 F
b11000000 E
b10 A
1"
#1160
0"
#1170
b1 (
#1180
b110 @
1+
b100 A
1"
#1190
0"
#1200
b10 (
#1210
b1000 @
1+
b110 A
1"
#1220
0"
#1230
b11 (
#1240
b1010 @
1+
b1000 A
1"
#1250
0"
#1260
b100 (
#1270
b0 @
1+
b1010 A
1"
#1280
0"
#1290
b101 (
#1300
0+
b0 A
1"
#1310
0"
#1320
b110 (
#1330
1"
#1340
0"
#1350
b111 (
#1360
1"
#1370
0"
#1380
b1000 (
#1390
1"
#1400
0"
#1410
b1001 (
#1420
1"
#1430
0"
#1440
b1010 (
#1450
b1 %
b1 *
b1 C
#1470
b10 $
b10 )
b10 B
#1490
1&
#1510
1"
#1520
0"
#1540
0&
#1560
b1 @
1'
#1580
b10 @
1-
1/
14
b1 A
1"
#1590
0"
#1610
b10 @
0'
#1620
b0 (
#1630
13
b11 @
04
0/
0-
b1 F
b100000 E
b10 A
1"
#1640
0"
#1650
b1 (
#1660
b100 @
1,
b11 A
1"
#1670
0"
#1680
b10 (
#1690
b100000 !
b100000 .
b100000 D
b110 @
1+
0,
b100000 G
b100 A
1"
#1700
0"
#1710
b11 (
#1720
b1000 @
1+
b10000 !
b10000 .
b10000 D
b110 A
b10000 G
1"
#1730
0"
#1740
b100 (
#1750
b1000 !
b1000 .
b1000 D
b1010 @
1+
b1000 G
b1000 A
1"
#1760
0"
#1770
b101 (
#1780
b0 @
1+
b100 !
b100 .
b100 D
b1010 A
b100 G
1"
#1790
0"
#1800
b110 (
#1810
b10 !
b10 .
b10 D
0+
b10 G
b0 A
1"
#1820
0"
#1830
b111 (
#1840
1"
#1850
0"
#1860
b1000 (
#1870
1"
#1880
0"
#1890
b1001 (
#1900
1"
#1910
0"
#1920
b1010 (
#1930
b0 %
b0 *
b0 C
#1950
b0 $
b0 )
b0 B
#1970
1&
#1990
1"
#2000
0"
#2020
0&
#2040
b1 @
1'
#2060
b10 @
1-
1/
14
b1 A
1"
#2070
0"
#2090
b10 @
0'
#2100
b0 (
#2110
b0 !
b0 .
b0 D
03
b100 @
04
0/
0-
b0 G
b0 F
b0 E
b10 A
1"
#2120
0"
#2130
b1 (
#2140
b110 @
1+
b100 A
1"
#2150
0"
#2160
b10 (
#2170
b1000 @
1+
b110 A
1"
#2180
0"
#2190
b11 (
#2200
b1010 @
1+
b1000 A
1"
#2210
0"
#2220
b100 (
#2230
b0 @
1+
b1010 A
1"
#2240
0"
#2250
b101 (
#2260
0+
b0 A
1"
#2270
0"
#2280
b110 (
#2290
1"
#2300
0"
#2310
b111 (
#2320
1"
#2330
0"
#2340
b1000 (
#2350
1"
#2360
0"
#2370
b1001 (
#2380
1"
#2390
0"
#2400
b1010 (
#2410
b1111 %
b1111 *
b1111 C
#2430
b1 $
b1 )
b1 B
#2450
1&
#2470
1"
#2480
0"
#2500
0&
#2520
b1 @
1'
#2540
b10 @
1-
1/
14
b1 A
1"
#2550
0"
#2570
b10 @
0'
#2580
b0 (
#2590
10
11
12
13
b11 @
04
0/
0-
b1111 F
b10000 E
b10 A
1"
#2600
0"
#2610
b1 (
#2620
b100 @
1,
b11 A
1"
#2630
0"
#2640
b10 (
#2650
b10000 !
b10000 .
b10000 D
b101 @
1+
0,
b10000 G
b100 A
1"
#2660
0"
#2670
b11 (
#2680
b110 @
1,
0+
b1000 !
b1000 .
b1000 D
b101 A
b1000 G
1"
#2690
0"
#2700
b100 (
#2710
b11000 !
b11000 .
b11000 D
b111 @
1+
0,
b11000 G
b110 A
1"
#2720
0"
#2730
b101 (
#2740
b1000 @
1,
0+
b1100 !
b1100 .
b1100 D
b111 A
b1100 G
1"
#2750
0"
#2760
b110 (
#2770
b11100 !
b11100 .
b11100 D
b1001 @
1+
0,
b11100 G
b1000 A
1"
#2780
0"
#2790
b111 (
#2800
b1010 @
1,
0+
b1110 !
b1110 .
b1110 D
b1001 A
b1110 G
1"
#2810
0"
#2820
b1000 (
#2830
b11110 !
b11110 .
b11110 D
b0 @
1+
0,
b11110 G
b1010 A
1"
#2840
0"
#2850
b1001 (
#2860
0+
b1111 !
b1111 .
b1111 D
b0 A
b1111 G
1"
#2870
0"
#2880
b1010 (
